…
<img src="/figure/source/2017-02-25-EEG-topography/defineTheme-1.png" title="plot of chunk defineTheme" alt="plot of chunk defineTheme" style="display: block; margin: auto;" />

So now we've got out electrode locations mapped into 2D space, and data for all timepoints, for all electrodes. What next? Let's combine our data and electrode locations into a single data frame. To do that I call **left_join** to mash them together using electrode to match rows across the two data frames. This finds matching electrodes between the locations file and the data and combines them where possible, so, for example, the new file will have locations for all the electrodes in the data but won't have rows for M1/M2 etc., since they're not in the data. In this way you can use any location file at all that has matching electrode labels with those in your data.


```r
allData <- topotest %>% left_join(electrodeLocs, by = "electrode")
allData
```

```
## # A tibble: 52,416 × 9
##      Times electrode amplitude chanNo   theta  radius radianTheta
##      <dbl>     <chr>     <dbl>  <int>   <dbl>   <dbl>       <dbl>
## 1  -200.20       Fp1   0.77280      1 -17.926 0.51499  -0.3128677
## 2  -199.22       Fp1   0.70987      1 -17.926 0.51499  -0.3128677
## 3  -198.24       Fp1   0.65099      1 -17.926 0.51499  -0.3128677
## 4  -197.27       Fp1   0.63708      1 -17.926 0.51499  -0.3128677
## 5  -196.29       Fp1   0.60768      1 -17.926 0.51499  -0.3128677
## 6  -195.31       Fp1   0.38862      1 -17.926 0.51499  -0.3128677
## 7  -194.34       Fp1   0.26168      1 -17.926 0.51499  -0.3128677
## 8  -193.36       Fp1   0.29348      1 -17.926 0.51499  -0.3128677
## 9  -192.38       Fp1   0.26700      1 -17.926 0.51499  -0.3128677
## 10 -191.41       Fp1   0.22802      1 -17.926 0.51499  -0.3128677
## # ... with 52,406 more rows, and 2 more variables: x <dbl>, y <dbl>
```
…
